Lab 9. Logistic regression
…
v.elision %>% 
  count(word, position, group, v.elision) %>% 
  select(-n, -v.elision) %>% 
  unique() ->
  new.df

new.df %>% 
  predict(fit, newdata = ., type = "response") -> 
  new.df$prediction

new.df %>% 
  arrange(prediction)

## Source: local data frame [32 x 4]
## Groups: word, position, group [32]
## 
##      word position  group prediction
##    <fctr>   <fctr> <fctr>      <dbl>
## 1  бесчин   strong  third  0.5335434
## 2    злор   strong  third  0.5335434
## 3   попеч   strong  third  0.5335434
## 4    чувс   strong  third  0.5335434
## 5    шефс   strong  third  0.5335434
## 6  бесчин     weak  third  0.7438196
## 7    злор     weak  third  0.7438196
## 8   попеч     weak  third  0.7438196
## 9    чувс     weak  third  0.7438196
## 10   шефс     weak  third  0.7438196
## # ... with 22 more rows

new.df %>% 
  arrange(desc(prediction))

## Source: local data frame [32 x 4]
## Groups: word, position, group [32]
## 
##      word position  group prediction
##    <fctr>   <fctr> <fctr>      <dbl>
## 1  бесчин     weak  first  0.9938457
## 2    злор     weak  first  0.9938457
## 3   попеч     weak  first  0.9938457
## 4    чувс     weak  first  0.9938457
## 5    шест     weak  first  0.9938457
## 6    шефс     weak  first  0.9938457
## 7  бесчин   strong  first  0.9845243
## 8    злор   strong  first  0.9845243
## 9   попеч   strong  first  0.9845243
## 10   чувс   strong  first  0.9845243
## # ... with 22 more rows
…
